텍마 최종
…
불용어제거

’기후위기’로 검색한 기사이기 때문에, ’기후위기’관련 단어는 제거. 문자가 아닌 요소 모두 제거

cc_tk <- 
cc_tk %>% 
  filter(!word %in% c("기후위기")) %>% 
  filter(str_detect(word, "[:alpha:]+"))

단어 총빈도와 상대빈도

cc_tk %>% count(word, sort = T)

# A tibble: 19,333 × 2
   word       n
   <chr>  <int>
 1 한      3002
 2 기후    2681
 3 위      1801
 4 년      1706
 5 것      1406
 6 등      1193
 7 탄소    1124
 8 하      1105
 9 들      1057
10 대통령   949
# … with 19,323 more rows

상대빈도가 높은 단어가 낮은 단어 확인

cc_tk %>% count(cat, word, sort = T) %>% 
  bind_log_odds(set = cat, feature = word, n = n) %>% 
  arrange(log_odds_weighted)

# A tibble: 32,943 × 4
   cat   word       n log_odds_weighted
   <chr> <chr>  <int>             <dbl>
 1 정치  기후     440             -6.99
 2 경제  대통령    63             -6.23
 3 경제  후보       9             -6.16
 4 경제  대선       7             -5.40
 5 정치  세계      59             -5.27
 6 경제  당        19             -4.37
 7 정치  년       342             -4.33
 8 정치  변화      71             -4.23
 9 정치  지구      35             -4.17
10 경제  정의      22             -4.12
# … with 32,933 more rows

cc_tk %>% count(cat, word, sort = T) %>% 
  bind_tf_idf(term = word, document = word, n = n) %>% 
  arrange(idf)

# A tibble: 32,943 × 6
   cat   word       n    tf   idf tf_idf
   <chr> <chr>  <int> <dbl> <dbl>  <dbl>
 1 정치  한       837 0.279  8.26   2.30
 2 사회  기후     736 0.275  8.26   2.27
 3 정치  대통령   722 0.761  8.26   6.28
 4 경제  한       676 0.225  8.26   1.86
 5 경제  기후     669 0.250  8.26   2.06
 6 정치  후보     588 0.927  8.26   7.66
 7 경제  년       585 0.343  8.26   2.83
 8 국제  기후     569 0.212  8.26   1.75
 9 사회  한       550 0.183  8.26   1.51
10 경제  탄소     533 0.474  8.26   3.92
# … with 32,933 more rows
…
[1] "김철웅 칼럼방황하는 북극곰과 신자유주의 북극곰들이 방황하고 있다 북극 지방의 빙하가 녹아 생활터전과 먹잇감이 줄어들자 곰들은 먼 바다까지 헤엄쳐 나가다가 익사하거나 굶주려 죽어가고 있다 몇 달 전 미국 정부는 북극곰을 멸종 위기 동물로 지정했다 더크 캠프손 내무장관은 지난 30년간 빙하가 급속히 줄어 이대로는 가까운 미래에 북극곰이 사라질 수도 있다고 밝혔다 북극곰의 수난은 두 말" 
[2] "김철웅칼럼 방황하는 북극곰과 신자유주의 북극곰들이 방황하고 있다 북극 지방의 빙하가 녹아 생활터전과 먹잇감이 줄어들자 곰들은 먼 바다까지 헤엄쳐 나가다가 익사하거나 굶주려 죽어가고 있다 몇 달 전 미국 정부는 북극곰을 멸종 위기 동물로 지정했다 더크 캠프손 내무장관은 지난 30년간 빙하가 급속히 줄어 이대로는 가까운 미래에 북극곰이 사라질 수도 있다고 밝혔다 북극곰의 수난은 두 말" 
[3] "환경칼럼코펜하겐 회의가 남긴 과제 전 세계의 눈과 귀를 집중시켰던 코펜하겐 기후회의는 구속력 있는 합의를 이루지 못하고 막을 내렸다 반기문 유엔 사무총장이나 오바마 미국 대통령 등은 절반의 성공이라고 애써 평가하지만 이에 동의하는 국가나 지도자들은 거의 없다 기후위기를 알리는 시계는 계속 가고 있는데 이를 해결하기 위한 합의 도출은 1년 뒤에 열릴 멕시코시티 총회로 미루어졌다 그러"

한글자 단어 제외

cc_tk %>% 
  filter(str_length(word) > 1) -> cc2_tk

cc2_tk %>% 
  count(word, sort = T) 

# A tibble: 18,588 × 2
   word       n
   <chr>  <int>
 1 기후    2681
 2 탄소    1124
 3 대통령   949
 4 정부     757
 5 서울     732
 6 중립     714
 7 세계     706
 8 후보     634
 9 변화     609
10 대응     593
# … with 18,578 more rows

상대빈도 재확인

cc2_tk %>% count(cat, word, sort = T) %>% 
  bind_log_odds(set = cat, feature = word, n = n) %>% 
  arrange(-log_odds_weighted)

# A tibble: 30,716 × 4
   cat   word             n log_odds_weighted
   <chr> <chr>        <int>             <dbl>
 1 정치  더불어민주당   283             11.1 
 2 정치  후보           588             10.9 
 3 정치  원내            50             10.6 
 4 정치  이재명         245             10.3 
 5 정치  심상           208              9.70
 6 정치  대통령         722              9.68
 7 정치  박지            40              9.44
 8 정치  출마            63              9.44
 9 정치  민주당         182              8.93
10 정치  양당            56              8.88
# … with 30,706 more rows

cc2_tk %>% count(cat, word, sort = T) %>% 
  bind_tf_idf(term = word, document = word, n = n) %>% 
  arrange(tf_idf)

# A tibble: 30,716 × 6
   cat   word         n      tf   idf tf_idf
   <chr> <chr>    <int>   <dbl> <dbl>  <dbl>
 1 문화  후보         1 0.00158  8.22 0.0130
 2 문화  온실가스     1 0.00285  8.22 0.0234
 3 문화  esg          1 0.00302  8.22 0.0248
 4 문화  문재인       1 0.00365  8.22 0.0300
 5 사회  민주당       1 0.00510  8.44 0.0431
 6 국제  뉴딜         1 0.00526  8.22 0.0433
 7 문화  정책         2 0.00629  8.22 0.0517
 8 경제  선거         1 0.00671  8.22 0.0552
 9 문화  선거         1 0.00671  8.22 0.0552
10 국제  국민의힘     1 0.00685  8.44 0.0578
# … with 30,706 more rows
…
td_gamma <- stm_fit %>% tidy(matrix = "gamma") 
td_gamma %>% glimpse()

Rows: 14,645
Columns: 3
$ document <int> 1, 2, 3, 4, 5, 6, 7, 8, 9, 10, 11, 12, 13, 14, 15, 16, 17, 18…
$ topic    <int> 1, 1, 1, 1, 1, 1, 1, 1, 1, 1, 1, 1, 1, 1, 1, 1, 1, 1, 1, 1, 1…
$ gamma    <dbl> 0.09217534, 0.18524413, 0.18524413, 0.09026968, 0.09481396, 0…

td_gamma %>% 
  mutate(max = max(gamma),
         min = min(gamma),
         median = median(gamma))

# A tibble: 14,645 × 6
   document topic  gamma   max    min median
      <int> <int>  <dbl> <dbl>  <dbl>  <dbl>
 1        1     1 0.0922 0.774 0.0366  0.164
 2        2     1 0.185  0.774 0.0366  0.164
 3        3     1 0.185  0.774 0.0366  0.164
 4        4     1 0.0903 0.774 0.0366  0.164
 5        5     1 0.0948 0.774 0.0366  0.164
 6        6     1 0.0844 0.774 0.0366  0.164
 7        7     1 0.0844 0.774 0.0366  0.164
 8        8     1 0.0839 0.774 0.0366  0.164
 9        9     1 0.209  0.774 0.0366  0.164
10       10     1 0.0883 0.774 0.0366  0.164
# … with 14,635 more rows
…
"!@#$... 전각ㆍㅣ문자 %^&*()" %>% str_remove("\\w+")

[1] "!@#$...  %^&*()"

fullchar_v <- "ㆍ|ㅣ|‘|’|“|”|○|●|◎|◇|◆|□|■|△|▲|▽|▼|〓|◁|◀|▷|▶|♤|♠|♡|♥|♧|♣|⊙|◈|▣"

cri_tk <- 
cri2_df %>% 
  mutate(키워드 = str_remove_all(키워드, "[^(\\w+|\\d+|,)]")) %>% 
  mutate(키워드 = str_remove_all(키워드, fullchar_v)) %>% 
  unnest_tokens(word, 키워드, token = "regex", pattern = ",") 

cri_tk %>% arrange(ID) %>% head(30)

# A tibble: 30 × 9
   일자     text                    언론사  cat   ID     week press catSoc word 
   <chr>    <chr>                   <chr>   <chr> <fct> <dbl> <chr> <chr>  <chr>
 1 20070302 "\"지구 온난화 인류에 … 매일경… 국제  1         9 경제… 비사…  인류 
 2 20070302 "\"지구 온난화 인류에 … 매일경… 국제  1         9 경제… 비사…  지구 
 3 20070302 "\"지구 온난화 인류에 … 매일경… 국제  1         9 경제… 비사…  온난 
 4 20070302 "\"지구 온난화 인류에 … 매일경… 국제  1         9 경제… 비사…  위협 
 5 20070302 "\"지구 온난화 인류에 … 매일경… 국제  1         9 경제… 비사…  총장 
 6 20070302 "\"지구 온난화 인류에 … 매일경… 국제  1         9 경제… 비사…  유엔 
 7 20070302 "\"지구 온난화 인류에 … 매일경… 국제  1         9 경제… 비사…  국제…
 8 20070302 "\"지구 온난화 인류에 … 매일경… 국제  1         9 경제… 비사…  콘퍼…
 9 20070302 "\"지구 온난화 인류에 … 매일경… 국제  1         9 경제… 비사…  기후 
10 20070302 "\"지구 온난화 인류에 … 매일경… 국제  1         9 경제… 비사…  변화 
# … with 20 more rows

cri_tk %>% arrange(ID) %>% tail(30)

# A tibble: 30 × 9
   일자     text                    언론사  cat   ID     week press catSoc word 
   <chr>    <chr>                   <chr>   <chr> <fct> <dbl> <chr> <chr>  <chr>
 1 20230531 소멸 앞둔 인간의 집을 … 경향신… 문화  4063     22 일간… 비사…  바람 
 2 20230531 소멸 앞둔 인간의 집을 … 경향신… 문화  4063     22 일간… 비사…  조형 
 3 20230531 소멸 앞둔 인간의 집을 … 경향신… 문화  4063     22 일간… 비사…  종이 
 4 20230531 소멸 앞둔 인간의 집을 … 경향신… 문화  4063     22 일간… 비사…  콘크…
 5 20230531 소멸 앞둔 인간의 집을 … 경향신… 문화  4063     22 일간… 비사…  한국 
 6 20230531 소멸 앞둔 인간의 집을 … 경향신… 문화  4063     22 일간… 비사…  현대 
 7 20230531 소멸 앞둔 인간의 집을 … 경향신… 문화  4063     22 일간… 비사…  건축 
 8 20230531 소멸 앞둔 인간의 집을 … 경향신… 문화  4063     22 일간… 비사…  운동 
 9 20230531 소멸 앞둔 인간의 집을 … 경향신… 문화  4063     22 일간… 비사…  1987…
10 20230531 소멸 앞둔 인간의 집을 … 경향신… 문화  4063     22 일간… 비사…  김중…
# … with 20 more rows

count_df <- 
cri_tk %>% count(word, sort = T)

count_df %>% head(40)

# A tibble: 40 × 2
   word         n
   <chr>    <int>
 1 기후      9002
 2 정부      6911
 3 위기      6412
 4 탄소      5574
 5 기후위기  5292
 6 에너지    5126
 7 세계      4821
 8 대통령    4516
 9 사회      4455
10 한국      4417
# … with 30 more rows

count_df %>% tail(40)

# A tibble: 40 × 2
   word           n
   <chr>      <int>
 1 迷鳥           1
 2 逆鱗           1
 3 造語           1
 4 逾越           1
 5 道德           1
 6 選擧之大計     1
 7 重厚長大       1
 8 量化           1
 9 閃絡           1
10 防産           1
# … with 30 more rows
…
td_beta <- meta_fit %>% tidy(matrix = 'beta')

term_topic_name <- 
td_beta %>% 
  group_by(topic) %>% 
  slice_max(beta, n = 7) %>% 
  left_join(topic_name, by = "topic")

term_topic_name

# A tibble: 63 × 4
# Groups:   topic [9]
   topic term      beta name               
   <int> <chr>    <dbl> <chr>              
 1     1 대통령 0.0225  1. 경제상황        
 2     1 미국   0.0162  1. 경제상황        
 3     1 경제   0.0131  1. 경제상황        
 4     1 한국   0.0123  1. 경제상황        
 5     1 코로나 0.0118  1. 경제상황        
 6     1 정부   0.0107  1. 경제상황        
 7     1 세계   0.00982 1. 경제상황        
 8     2 산불   0.00755 2. 산불 등 농업피해
 9     2 지역   0.00755 2. 산불 등 농업피해
10     2 농업   0.00624 2. 산불 등 농업피해
# … with 53 more rows
…
주제별 문서 분포도

td_gamma <- meta_fit %>% tidy(matrix = 'gamma') 

doc_topic_name <- 
td_gamma %>% 
  group_by(topic) %>% 
  left_join(topic_name, by = "topic")

doc_topic_name

# A tibble: 36,567 × 4
# Groups:   topic [9]
   document topic   gamma name       
      <int> <int>   <dbl> <chr>      
 1        1     1 0.113   1. 경제상황
 2        2     1 0.373   1. 경제상황
 3        3     1 0.366   1. 경제상황
 4        4     1 0.0895  1. 경제상황
 5        5     1 0.0927  1. 경제상황
 6        6     1 0.0468  1. 경제상황
 7        7     1 0.00581 1. 경제상황
 8        8     1 0.0233  1. 경제상황
 9        9     1 0.0228  1. 경제상황
10       10     1 0.171   1. 경제상황
# … with 36,557 more rows
…
# 공변인 계수
coef_time <- 
prep %>% tidy() %>% 
  filter(str_detect(term, "^s"))
coef_time

# A tibble: 54 × 6
   topic term        estimate std.error statistic p.value
   <int> <chr>          <dbl>     <dbl>     <dbl>   <dbl>
 1     1 s(week, 6)1  -0.0393    0.0454    -0.866  0.386 
 2     1 s(week, 6)2  -0.0712    0.0320    -2.22   0.0262
 3     1 s(week, 6)3   0.0207    0.0377     0.550  0.582 
 4     1 s(week, 6)4  -0.0745    0.0331    -2.25   0.0244
 5     1 s(week, 6)5   0.0374    0.0370     1.01   0.313 
 6     1 s(week, 6)6  -0.0859    0.0390    -2.20   0.0277
 7     2 s(week, 6)1   0.0107    0.0373     0.286  0.775 
 8     2 s(week, 6)2   0.0219    0.0272     0.805  0.421 
 9     2 s(week, 6)3   0.0186    0.0328     0.566  0.571 
10     2 s(week, 6)4   0.0211    0.0311     0.679  0.497 
# … with 44 more rows
…
